{
    "os": "Linux-5.4.0-72-generic-x86_64-with-debian-bullseye-sid",
    "python": "3.6.13",
    "heartbeatAt": "2021-05-18T18:33:06.678164",
    "startedAt": "2021-05-18T18:33:05.248700",
    "docker": null,
    "gpu": "GeForce GTX 1060 6GB",
    "gpu_count": 1,
    "cpu_count": 16,
    "cuda": null,
    "args": [
        "args_train_nyu.txt"
    ],
    "state": "running",
    "program": "/home/niels/Dokumente/Studium/Informatik/BachelorArbeit/Sources/Code/AdaBins/train.py",
    "codePath": "train.py",
    "git": {
        "remote": "https://github.com/shariqfarooq123/AdaBins.git",
        "commit": "2fb686a66a304f0a719bc53d77412460af97fd61"
    },
    "email": "niels.gasper@googlemail.com",
    "root": "/home/niels/Dokumente/Studium/Informatik/BachelorArbeit/Sources/Code/AdaBins",
    "host": "nielspc",
    "username": "niels",
    "executable": "/home/niels/anaconda3/envs/ada/bin/python"
}
